<svg width="33" height="20" viewBox="0 0 33 20" fill="none" xmlns="http://www.w3.org/2000/svg">
<path d="M30.616 16.792C30.52 17.464 30.208 18.112 29.68 18.736C29.2 19.312 28.48 19.6 27.52 19.6H18.664C18.232 19.6 17.848 19.456 17.512 19.168C17.224 18.832 17.08 18.448 17.08 18.016C17.08 17.824 17.104 17.656 17.152 17.512L22.768 3.184C22.96 2.704 23.272 2.2 23.704 1.672C24.184 1.144 24.904 0.879997 25.864 0.879997H31.264C31.696 0.879997 32.056 1.048 32.344 1.384C32.68 1.672 32.848 2.032 32.848 2.464V2.608L30.616 16.792ZM13.696 16.792C13.6 17.464 13.288 18.112 12.76 18.736C12.28 19.312 11.56 19.6 10.6 19.6H1.744C1.312 19.6 0.928 19.456 0.592 19.168C0.304 18.832 0.16 18.448 0.16 18.016C0.16 17.824 0.184 17.656 0.232 17.512L5.848 3.184C6.04 2.704 6.352 2.2 6.784 1.672C7.264 1.144 7.984 0.879997 8.944 0.879997H14.344C14.776 0.879997 15.136 1.048 15.424 1.384C15.76 1.672 15.928 2.032 15.928 2.464V2.608L13.696 16.792Z" fill="#FFC107"/>
</svg>
