<svg width="14" height="8" viewBox="0 0 14 8" fill="none" xmlns="http://www.w3.org/2000/svg">
<path fill-rule="evenodd" clip-rule="evenodd" d="M0.2929 6.29289C-0.0976 6.68342 -0.0976 7.31658 0.2929 7.70711C0.6834 8.09763 1.3166 8.09763 1.7071 7.70711L7 2.41421L12.2929 7.70711C12.6834 8.09763 13.3166 8.09763 13.7071 7.70711C14.0976 7.31658 14.0976 6.68342 13.7071 6.29289L7.70711 0.29289C7.31658 -0.0976295 6.68342 -0.0976295 6.29289 0.29289L0.2929 6.29289Z" fill="#1C1C1C"/>
</svg>
